…
Trellis_Data1 %>%
  group_by(Products, region) %>%
  summarise(uniq_industry = length(unique(industry)))

Note from Ryan Hafen

To add additional variables to a display to sort and filter on, those variables just need to be present in the data. If it’s a numeric variable, a summary statistic (mean) will be computed. If it’s categorical, like industry, then the variable can only be included if it is constant within each panel (each panel can have a set of scalar metrics to sort and filter on - these cannot be vectors). The industry variable cannot be used in the above display because it is not unique within each combination of Products and region. You could create a new variable that is the most prominent industry for each Products / region combination and then it would be automatically included.

Trellis_Data2 <- Trellis_Data1 %>%
  group_by(Products, region) %>%
  mutate(industry_most = names(tail(sort(table(industry)), 1)))

Trellis_Data2

## # A tibble: 888 x 10
## # Groups:   Products, region [9]
##    Products Unit.Cost Amount   Qty Ship.Country       Year Month region   
##    <chr>        <dbl>  <dbl> <int> <chr>             <dbl> <dbl> <fct>    
##  1 ProdA         94.9  665       7 United States of…  2016  5.00 " North …
##  2 ProdA         94.9   96.0     1 United States of…  2016  5.00 " North …
##  3 ProdA         94.9  655       7 United States of…  2016  5.00 " North …
##  4 ProdA         93.9   93.9     1 Australia          2016  5.00 " Austra…
##  5 ProdA         94.9   93.9     1 Switzerland        2016  5.00 " EMEA " 
##  6 ProdA         94.9   96.0     1 United Kingdom     2016  5.00 " EMEA " 
##  7 ProdC         96.0  288       3 Germany            2016  5.00 " EMEA " 
##  8 ProdC         96.0  192       2 United States of…  2016  5.00 " North …
##  9 ProdC         96.0  192       2 United Kingdom     2016  5.00 " EMEA " 
## 10 ProdC         96.0  192       2 Ireland            2016  5.00 " EMEA " 
## # ... with 878 more rows, and 2 more variables: industry <fct>,
## #   industry_most <chr>
…
